/* Default linker script, for normal executables */
OUTPUT_FORMAT("coff-m68k")
OUTPUT_ARCH(m68k)
SECTIONS
{
.text :
	{
	  *(.text)
	  *(.strings)
   	  _etext = .;
	*(.data)
	_edata = .;
	*(.bss)
	*(COMMON)
	 _end = .;
}
}
