/* Default linker script, for normal executables */
/* Linker script for TMS320C3x executable.  */
OUTPUT_FORMAT("coff2-tic4x")
OUTPUT_ARCH("tic3x")
ENTRY (_start)
 __HEAP_SIZE = DEFINED(__HEAP_SIZE) ? __HEAP_SIZE : 0;
 __STACK_SIZE  = DEFINED(__STACK_SIZE)  ? __STACK_SIZE  : 128;
/* C30 memory space.  */
MEMORY
{
   EXT0  :  org = 0x0000000, len = 0x800000  /* External address bus.  */
   XBUS  :  org = 0x0800000, len = 0x002000  /* Expansion bus.         */
   IOBUS :  org = 0x0804000, len = 0x002000  /* I/O BUS.               */
   RAM0  :  org = 0x0809800, len = 0x000400  /* Internal RAM block 0.  */
   RAM1  :  org = 0x0809a00, len = 0x000400  /* Internal RAM block 1.  */
   RAM   :  org = 0x0809800, len = 0x000800  /* Internal RAM.          */
   EXT1  :  org = 0x080a000, len = 0x7f6000  /* External address bus.  */
}
/* In the small memory model the .data and .bss sections must be contiguous
   when loaded and fit within the same page.   The DP register is loaded
   with the page address.  */
SECTIONS
{
  /* Reset, interrupt, and trap vectors.  */
  .vectors  0 : {
    *(.vectors)
  }  > RAM
  /* Constants.  */
  .const : {
    *(.const)
  }  > RAM
  /* Program code.  */
  .text : {
      __text =  .;
     *(.init)
    *(.text)
     ___CTOR_LIST__ = .;
     LONG(___CTOR_END__ - ___CTOR_LIST__ - 2)
     *(.ctors)
     LONG(0);
     ___CTOR_END__  = .;
     ___DTOR_LIST__ = .;
     LONG(___DTOR_END__ - ___DTOR_LIST__ - 2)
     *(.dtors)
     LONG(0)
     ___DTOR_END__  = .;
     *(.fini)
      __etext =  .;
  }  > RAM
  /* Global initialised variables.  */
  .data :
  {
      __data  =  .;
    *(.data)
      __edata  = .;
  }  > RAM
  /* Global uninitialised variables.  */
  .bss : {
     __bss  =  .;
    *(.bss)
    *(COMMON)
      __end  =  .;
  }  > RAM
  /* Heap.  */
  .heap :
  {
     __heap  =  .;
     . += __HEAP_SIZE;
  }  > RAM
  /* Stack (grows upward).  */
  .stack :
  {
     __stack  =  .;
    *(.stack)
     .  =  . + __STACK_SIZE;
  }  > RAM
  .stab 0 (NOLOAD) :
  {
    [ .stab ]
  }
  .stabstr 0 (NOLOAD) :
  {
    [ .stabstr ]
  }
}
